21

13 6
11
h 10 4 s
r 11 5 s
r 10 4 n
t 7 3 w
r 4 2 n
f 4 3 e
r 3 4 e
h 7 1 e
f 9 1 s
h 7 3 w
h 5 3 w
77 6

6 14
12
f 4 8 s
f 5 10 n
t 4 10 w
h 5 11 w
r 1 7 e
h 5 8 n
h 4 10 n
h 4 9 e
f 4 2 w
r 5 2 s
f 5 13 e
t 1 13 s
79 6

19 15
11
h 14 1 s
f 7 1 s
t 3 9 s
r 1 11 n
f 8 3 s
r 6 12 n
r 16 6 s
f 7 1 s
r 4 8 e
f 16 11 s
h 13 9 w
76 10

13 13
9
t 1 1 w
t 4 3 w
r 7 1 n
r 5 11 w
r 12 3 n
f 7 12 e
t 5 5 s
f 8 4 s
t 10 11 s
66 9

19 6
8
t 15 1 e
f 18 5 e
h 12 5 w
h 7 3 s
r 18 5 n
r 8 2 e
f 15 4 w
f 5 3 s
77 7

8 5
12
h 5 3 s
h 1 3 e
f 1 3 w
r 3 4 s
t 7 2 w
f 7 1 s
h 4 4 n
h 3 4 n
r 1 2 w
r 4 3 s
r 1 3 w
h 2 3 w
80 10

6 13
9
t 4 3 s
h 4 7 n
r 3 2 s
f 3 2 n
r 5 9 n
r 5 11 e
f 4 10 e
r 1 2 e
f 5 4 n
59 10

19 13
8
r 3 9 n
t 4 11 e
r 18 1 e
t 5 2 s
f 1 9 s
h 8 10 n
h 17 8 s
h 16 12 n
80 10

6 11
11
r 5 4 w
t 1 5 e
h 1 6 w
t 5 7 w
t 1 2 w
t 2 2 s
f 1 3 n
h 4 3 w
h 2 7 w
h 4 4 e
h 2 7 e
66 9

8 5
8
t 5 4 w
t 2 4 w
h 7 3 w
f 1 3 n
f 3 3 n
r 1 2 s
h 1 4 w
r 5 2 e
58 7

5 15
9
f 3 14 w
r 3 7 s
f 3 13 e
h 1 5 n
h 3 8 s
f 3 10 w
r 3 14 s
f 1 13 w
h 4 12 e
59 7

9 12
9
f 4 7 w
f 8 3 w
h 2 10 s
t 3 8 s
h 5 7 n
r 1 9 e
h 5 5 n
t 7 10 n
r 2 3 n
54 9

17 10
10
h 3 5 n
h 8 3 s
r 1 8 w
r 15 2 w
h 12 9 n
r 14 8 n
r 14 9 w
r 6 7 n
f 8 3 s
f 4 8 w
58 6

12 7
10
f 2 5 n
h 11 3 e
f 9 5 w
t 3 4 e
t 2 5 n
r 1 3 e
t 10 3 n
h 4 5 w
h 2 5 w
h 5 3 n
70 5

14 7
10
f 7 3 e
f 7 2 s
f 2 6 w
f 4 1 w
f 3 3 w
h 8 3 n
r 13 1 w
f 12 1 e
f 1 3 n
h 11 4 s
74 7

20 11
10
f 2 5 s
h 12 6 e
r 15 8 w
t 14 1 e
t 11 10 w
f 19 4 s
r 8 1 e
t 5 10 n
t 18 1 e
t 19 10 e
74 9

18 19
8
f 16 13 n
f 9 13 n
h 10 3 s
h 14 8 n
r 17 2 e
h 1 4 n
f 12 11 e
t 3 9 w
66 6

19 16
11
r 8 12 e
f 12 6 n
r 7 7 s
h 18 4 w
t 9 1 n
r 10 13 w
h 14 5 n
f 7 12 w
h 3 1 e
t 3 5 s
t 13 9 s
71 5

9 9
8
r 2 5 w
f 6 3 n
r 5 7 w
t 4 4 e
h 1 1 n
r 1 1 s
r 7 2 s
r 3 5 e
64 9

17 14
10
t 10 13 s
t 7 11 e
t 15 10 n
h 3 4 w
h 1 13 s
h 16 2 e
r 3 7 w
h 4 5 n
h 4 13 e
r 13 5 e
76 5

13 9
11
r 9 7 s
h 12 3 n
f 7 8 n
f 7 6 e
h 1 6 w
h 6 7 w
t 10 5 w
f 3 5 s
t 4 3 e
h 6 4 s
r 1 4 w
72 10
