21

30 41
13
r 3 2 e
h 29 24 e
t 7 21 s
h 13 26 e
t 6 38 s
r 18 5 s
t 21 27 s
h 17 14 e
t 9 30 s
f 28 9 s
r 18 34 n
r 29 4 w
f 20 6 e
22 6

11 21
12
f 7 17 e
t 0 14 n
t 10 0 e
t 5 14 n
t 2 20 s
h 2 15 e
r 1 5 e
t 1 14 n
r 10 19 w
f 1 13 e
r 0 11 n
f 8 6 s
47 5

24 17
7
r 5 2 e
h 3 11 e
f 18 6 e
h 4 9 e
r 19 5 s
t 13 11 e
r 18 2 n
50 17

27 21
6
r 23 7 e
r 24 19 w
f 1 11 s
h 11 4 s
r 0 12 s
h 12 3 e
32 17

23 36
6
h 0 3 e
t 5 2 w
t 3 25 s
h 0 13 e
r 20 19 n
r 19 27 w
24 15

11 8
9
h 6 3 e
t 10 1 e
r 0 3 n
h 2 4 s
t 4 0 w
t 4 6 e
h 4 3 s
r 9 4 w
h 0 3 s
25 11

6 18
8
r 2 12 s
r 1 13 s
t 0 6 s
f 2 1 e
t 4 8 w
h 1 13 e
t 3 7 e
h 4 1 s
15 3

20 11
7
t 10 0 e
f 11 6 w
f 16 0 n
r 6 5 w
f 0 8 w
h 9 4 e
f 17 9 s
30 5

14 10
14
f 12 9 w
f 8 5 w
t 0 5 w
r 9 4 n
f 0 7 s
f 10 4 e
h 7 8 n
h 8 6 e
t 10 0 w
f 6 4 e
h 1 7 n
h 11 7 w
t 10 1 e
r 6 9 e
24 12

5 32
13
f 0 16 e
r 3 15 w
f 1 2 s
h 1 17 e
t 4 28 w
t 3 22 s
r 0 27 w
h 2 29 s
f 1 24 n
f 2 13 n
r 2 27 s
r 2 30 e
h 4 22 s
49 19

30 36
14
r 25 19 s
r 24 30 n
r 16 31 w
r 25 20 s
h 13 20 e
f 11 22 s
f 5 21 s
t 2 35 e
r 1 33 e
f 9 33 e
f 10 1 n
t 19 1 s
r 11 32 w
h 7 19 e
21 4

37 22
5
t 22 16 e
r 33 11 n
r 24 4 s
t 25 16 w
h 15 21 s
14 15

40 13
13
t 15 9 w
f 23 4 w
r 3 4 s
f 35 6 s
f 24 2 s
r 29 9 w
r 33 1 n
h 3 10 s
h 27 1 e
r 27 9 e
h 6 10 n
f 39 3 s
h 23 7 w
14 3

29 47
5
r 14 23 e
t 8 39 n
r 3 45 s
h 25 25 e
t 27 28 s
33 17

23 43
6
r 9 8 n
h 9 42 s
r 22 23 s
t 10 1 w
h 2 14 e
r 5 32 n
16 18

9 37
12
f 7 7 s
f 0 30 n
r 3 5 s
f 3 11 s
t 0 1 s
f 6 18 n
h 2 19 s
t 2 25 n
r 1 36 w
f 6 23 s
t 7 21 n
f 4 17 n
18 20

33 34
15
r 9 27 e
f 27 12 w
t 12 22 s
f 21 23 e
r 23 7 s
t 6 10 n
r 5 16 s
t 8 33 e
f 14 9 n
t 27 25 n
h 20 10 n
t 26 3 n
h 11 16 s
t 23 6 e
t 32 2 w
15 10

17 41
7
t 6 14 s
f 11 29 e
h 8 14 e
f 12 17 s
r 4 3 s
f 7 19 n
t 1 30 s
40 14

24 47
10
f 9 33 w
h 18 7 n
f 9 32 n
f 20 19 e
f 4 30 s
t 5 17 w
h 8 7 s
r 10 6 e
f 13 40 w
r 10 29 s
17 13

48 48
14
f 24 10 w
h 45 1 n
r 4 26 s
f 26 25 e
f 29 14 n
r 30 26 w
t 40 16 s
r 45 32 s
f 45 26 e
h 44 46 n
t 5 41 s
t 32 42 s
h 40 45 s
t 9 27 s
31 4

34 9
5
r 31 7 s
t 18 8 s
t 30 3 e
t 29 3 w
r 4 1 w
42 7
